{
	"_id": "course123",
	"name": "Full-Stack Developer in JavaScript",
	"description": "Learn how to do web development using JavaScript",
	"price": 10000,
	"slot": 25,
	"isActive": true,
	"dateTimeCreated": "2022-08-15-1820PM"
},

{
	"_id": "course456",
	"name": "Introduction to PHP",
	"description": "Learn how to do web development using JavaScript",
	"price": 10000,
	"slot": 25,
	"isActive": true,
	"dateTimeCreated": "2022-08-15-1821PM"
}